Reading and Cleaning Data • epl
…
add_timestamp: gives the option to add a timestamp (time of day) column in datetime format based on the file recording start time. The file start time is accurate to the nearest second (± 0.5 sec precision) as long as the Parvo system time was accurate in the first place. Which is not always true.

The output of this function is a list of three data frames:

parvo$data: contains the recorded raw data samples for exported data channels (e.g. c("VO2", "VCO2", "RR", "Vt")) and calculated metabolic values (e.g. c("O2kJ", "O2kcal", "Paer", "METS"); see ?read_parvo for details on calculated values).

parvo$details: contains the file details & metadata, including c("Date", "Name", "Sex", "Age") (metric SI units only).

parvo$events: contains any manually entered events with time in seconds and event descriptions.

parvo <- read_parvo(file_path = file_path, add_timestamp = TRUE)
parvo
#> $data
#> # A tibble: 179 × 26
#>     TIME timestamp              HR VO2kg   VO2  VCO2   RER    RR    Vt    VE
#>    <dbl> <dttm>              <dbl> <dbl> <dbl> <dbl> <dbl> <dbl> <dbl> <dbl>
#>  1  18.1 2025-10-23 10:50:23     0  5.69 0.404 0.419 1.04   13.3 1.11  12.1 
#>  2  31.5 2025-10-23 10:50:36     0  6.80 0.483 0.484 1.00   17.8 0.993 14.5 
#>  3  49.5 2025-10-23 10:50:54   107  6.08 0.432 0.448 1.04   10.0 1.66  13.6 
#>  4  62.5 2025-10-23 10:51:07   107  4.06 0.288 0.321 1.11   13.8 0.816  9.27
#>  5  77.5 2025-10-23 10:51:22   107  8.61 0.611 0.648 1.06   16.0 1.28  16.8 
#>  6  94.9 2025-10-23 10:51:39   107  7.52 0.534 0.528 0.990  13.8 1.15  13.0 
#>  7 107.  2025-10-23 10:51:51   107  6.80 0.483 0.514 1.06   15.0 1.10  13.6 
#>  8 123.  2025-10-23 10:52:08   107  5.94 0.422 0.454 1.08   11.2 1.33  12.2 
#>  9 138.  2025-10-23 10:52:23   107  2.47 0.175 0.186 1.06   16.0 0.392  5.13
#> 10 153.  2025-10-23 10:52:37   107  3.92 0.278 0.294 1.06   12.1 0.845  8.42
#> # ℹ 169 more rows
#> # ℹ 16 more variables: VEVO2 <dbl>, VEVCO2 <dbl>, FEO2 <dbl>, FECO2 <dbl>,
#> #   FATmin <dbl>, CHOmin <dbl>, Breath <dbl>, FatOx <dbl>, CarbOx <dbl>,
#> #   O2kJ <dbl>, O2kcal <dbl>, O2work <dbl>, O2energy <dbl>, O2power <dbl>,
#> #   O2pulse <dbl>, METS <dbl>
#> 
#> $details
#> # A tibble: 1 × 16
#>   Date             Name  Sex     Age Height Weight `Insp. temp` `Baro. pressure`
#>   <chr>            <chr> <chr> <dbl>  <dbl>  <dbl>        <dbl>            <dbl>
#> 1 2025-10-23 10:5… TW02  Male      0    176     71         23.6             755.
#> # ℹ 8 more variables: `Insp. humidity` <dbl>, `STPD to BTPS` <dbl>,
#> #   `O2 Gain` <dbl>, `CO2 Gain` <dbl>, `Base O2` <dbl>, `Base CO2` <dbl>,
#> #   `Measured O2` <dbl>, `Measured CO2` <dbl>
#> 
#> $events
#> # A tibble: 23 × 2
#>     TIME Events        
#>    <dbl> <chr>         
#>  1   240 Start Exercise
#>  2   240 UP1 265W      
#>  3   540 Stop Exercise 
#>  4   540 Cadence 95    
#>  5   900 Start Exercise
#>  6   900 RP2 265W      
#>  7  1200 Stop Exercise 
#>  8  1200 RPE 6-20 15   
#>  9  1200 Cadence 95    
#> 10  1440 Start Exercise
#> # ℹ 13 more rows
…
read_tymewear() only has one argument:

file_path: as above, the character string for our file path.

The output of this function is a list of two data frames:

tyme$data: contains the recorded raw data samples for breathing rate, tidal volume, and ventilation: c("br", "vt", "ve"), with time in seconds and timestamps in datetime format.

tyme$details: contains the file details & metadata, including c("gender", "weight", "date", "app-start-time"). It is in “long” format, whereas the parvo details are in “wide” format.

tymelive <- read_tymewear(example_epl("tymewear_live"))
tymelive
#> $data
#> # A tibble: 1,083 × 5
#>     time timestamp              br    vt    ve
#>    <dbl> <dttm>              <dbl> <dbl> <dbl>
#>  1  0    2025-10-23 10:50:11  12.7  1.35    17
#>  2  4.14 2025-10-23 10:50:15  14.9  1.35    20
#>  3  7.95 2025-10-23 10:50:18  15    1.05    16
#>  4 13.0  2025-10-23 10:50:24  13.8  2.4     33
#>  5 17.2  2025-10-23 10:50:28  13.3  1.11    15
#>  6 21.2  2025-10-23 10:50:32  12.8  1.63    21
#>  7 25.7  2025-10-23 10:50:36  13    3.61    47
#>  8 33.9  2025-10-23 10:50:44  11.9  5.88    70
#>  9 39.3  2025-10-23 10:50:50   8    1.14     9
#> 10 44.7  2025-10-23 10:50:55  10    2.21    22
#> # ℹ 1,073 more rows
#> 
#> $details
#> # A tibble: 60 × 2
#>    parameter     value   
#>    <chr>         <chr>   
#>  1 Info Section  ""      
#>  2 type          "0"     
#>  3 stages        "[]"    
#>  4 gender        "Female"
#>  5 weight        "64.0"  
#>  6 weight_units  "SI"    
#>  7 activity-name "TW02"  
#>  8 f_v           "1.0"   
#>  9 activity-type "0"     
#> 10 sport         "2"     
#> # ℹ 50 more rows
…
